Package GeneAccord
…
The first column lists the altered genes or pathways. In this manual, we will use the term genes, even if the altered entities can also be pathways. The columns that come after the gene indicate in which clone the gene is mutated. In this package, data tables or csv-files are stored and used as tibbles. Tibbles are a novel way to represent data frames. Please refer to the R package tibble [5] for more information. Now we read in the patient’s gene-to-clone assignments from the collection of tree inferences to obtain it in a tibble format.

clone_tbl_01_all_trees <- create_tbl_tree_collection(input_files_01)
#> Found a collection of tree inferences of 20 input files.
#> Removed 1 gene that is missing in more than 2 of gene-to-clone assignments.
#> Found 580 altered genes/pathways in total, which are from 20 gene-to-clone assignments.

Let’s look at the tibble:

clone_tbl_01_all_trees
#> # A tibble: 580 x 11
#>    file_name  patient_id altered_entity clone1 clone2 clone3 clone4 clone5
#>    <chr>      <chr>      <chr>           <int>  <int>  <int>  <int>  <int>
#>  1 cloe_seed~ 01         ENSG000000081~      0      1      1      1      0
#>  2 cloe_seed~ 01         ENSG000000511~      0      1      1      1      0
#>  3 cloe_seed~ 01         ENSG000000784~      0      0      1      1      0
#>  4 cloe_seed~ 01         ENSG000000847~      0      1      1      1      0
#>  5 cloe_seed~ 01         ENSG000001001~      0      1      1      1      0
#>  6 cloe_seed~ 01         ENSG000001059~      0      0      1      1      0
#>  7 cloe_seed~ 01         ENSG000001082~      0      0      1      1      0
#>  8 cloe_seed~ 01         ENSG000001088~      0      1      1      1      0
#>  9 cloe_seed~ 01         ENSG000001112~      0      0      1      1      0
#> 10 cloe_seed~ 01         ENSG000001137~      0      1      1      1      0
#> # ... with 570 more rows, and 3 more variables: clone6 <int>,
#> #   clone7 <int>, tree_id <int>
…
2. Generate null distribution of test statistic

In order to generate the null distribution of the test statistic, the empirical cumulative distribution function (ECDF) of the test statistic is computed. The null hypothesis assumes independence of mutations, and therefore states that the gene pairs occur across the cohort in the clonal exclusivity pattern as often as expected by chance according to the overall rates of clonal exclusivity. The function to compute the ECDF of the test statistic under the null generate_ecdf_test_stat takes as input from all patients the data computed in step 1, namely the average rate of clonal exclusivity, as well as the histogram of how often pairs occur in the tree, and how often they were clonally exclusive. Here, it is assumed that step 1 of this vignette was run for all patients, and that you have the parameters avg_rates_m, list_of_num_trees_all_pats, list_of_clon_excl_all_pats, and clone_tbl_all_pats_all_trees. If not, you can load the precomputed data.

# load the data as generated in step 1 from all 82 patients
data("clone_tbl_all_pats_all_trees")
data("avg_rates_m")
data("list_of_num_trees_all_pats")
data("list_of_clon_excl_all_pats")

Now we can have a look at this data.

# the tibble containing the gene-to-clone assignments from all patients and the whole collection of trees
print(clone_tbl_all_pats_all_trees)
#> # A tibble: 14,108 x 11
#>    file_name  patient_id altered_entity clone1 clone2 clone3 clone4 clone5
#>  * <chr>      <chr>      <chr>           <int>  <int>  <int>  <int>  <int>
#>  1 cloe_seed~ 01         ENSG000000081~      0      1      1      1      0
#>  2 cloe_seed~ 01         ENSG000000511~      0      1      1      1      0
#>  3 cloe_seed~ 01         ENSG000000784~      0      0      1      1      0
#>  4 cloe_seed~ 01         ENSG000000847~      0      1      1      1      0
#>  5 cloe_seed~ 01         ENSG000001001~      0      1      1      1      0
#>  6 cloe_seed~ 01         ENSG000001059~      0      0      1      1      0
#>  7 cloe_seed~ 01         ENSG000001082~      0      0      1      1      0
#>  8 cloe_seed~ 01         ENSG000001088~      0      1      1      1      0
#>  9 cloe_seed~ 01         ENSG000001112~      0      0      1      1      0
#> 10 cloe_seed~ 01         ENSG000001137~      0      1      1      1      0
#> # ... with 14,098 more rows, and 3 more variables: clone6 <int>,
#> #   clone7 <int>, tree_id <int>
…
data("ensg_reactome_path_map")

clone_tbl_pat01_tree1 <- clone_tbl_all_pats_all_trees %>%
                            filter(patient_id == "01") %>%
                            filter(tree_id == 1) %>%
                            select(-tree_id)

clone_tbl_pat01_tree1_pw <- convert_ensembl_to_reactome_pw_tbl(clone_tbl_pat01_tree1, ensg_reactome_path_map)
#> Found 29 different Ensembl gene id's in the provided alteration tibble.
#> 9 could not be mapped to a reactome pathway.
#> The remaining 20 different Ensembl gene id's were mapped to 110 different reactome pathways.
#> There are 110 clone-pathway associations in the converted tibble.

clone_tbl_pat01_tree1_pw
#> # A tibble: 119 x 10
#>    file_name  patient_id altered_entity clone1 clone2 clone3 clone4 clone5
#>    <fct>      <fct>      <fct>           <int>  <int>  <int>  <int>  <int>
#>  1 cloe_seed~ 01         ABC-family pr~      0      1      1      1      0
#>  2 cloe_seed~ 01         Activation of~      0      1      1      1      0
#>  3 cloe_seed~ 01         Activation of~      0      1      1      1      0
#>  4 cloe_seed~ 01         Antigen proce~      0      1      1      1      0
#>  5 cloe_seed~ 01         APC/C:Cdc20 m~      0      1      1      1      0
#>  6 cloe_seed~ 01         APC/C:Cdh1 me~      0      1      1      1      0
#>  7 cloe_seed~ 01         Assembly of c~      0      1      1      1      0
#>  8 cloe_seed~ 01         Asymmetric lo~      0      1      1      1      0
#>  9 cloe_seed~ 01         AUF1 (hnRNP D~      0      1      1      1      0
#> 10 cloe_seed~ 01         Autodegradati~      0      1      1      1      0
#> # ... with 109 more rows, and 2 more variables: clone6 <int>, clone7 <int>
…
